,date,city,rent,product
0,2021-01-01,Burdur,2,1474
1,2021-01-02,Kırşehir,3,1214
2,2021-01-03,Kırıkkale,9,1759
3,2021-01-04,Edirne,15,1060
4,2021-01-05,Bursa,2,1812
5,2021-01-06,Bilecik,5,1339
6,2021-01-07,Sakarya,11,1468
7,2021-01-08,İstanbul,17,1032
8,2021-01-09,Kocaeli,11,1696
9,2021-01-10,Ordu,12,1205
10,2021-01-11,Antalya,8,1346
11,2021-01-12,Konya,2,1395
12,2021-01-13,Elazığ,4,1041
13,2021-01-14,Şanlıurfa,6,1213
14,2021-01-15,Adıyaman,3,1510
15,2021-01-16,Adana,1,1555
16,2021-01-17,Burdur,10,1676
17,2021-01-18,Bolu,13,1605
18,2021-01-19,Bingöl,13,1928
19,2021-01-20,Düzce,16,1517
20,2021-01-21,Uşak,9,1247
21,2021-01-22,Edirne,12,1366
22,2021-01-23,Sakarya,7,1168
23,2021-01-24,Antalya,1,1170
24,2021-01-25,Iğdır,3,1667
25,2021-01-26,Malatya,14,1750
26,2021-01-27,Adana,10,1425
27,2021-01-28,Rize,13,1221
28,2021-01-29,Muş,17,1877
29,2021-01-30,Yalova,15,1499
30,2021-01-31,Bitlis,17,1728
31,2021-02-01,Kastamonu,3,1821
32,2021-02-02,Artvin,14,1143
33,2021-02-03,Trabzon,15,1714
34,2021-02-04,Isparta,1,1881
35,2021-02-05,Gümüşhane,5,1603
36,2021-02-06,Yalova,3,1459
37,2021-02-07,Tunceli,9,1410
38,2021-02-08,Ankara,7,1952
39,2021-02-09,Balıkesir,9,1479
40,2021-02-10,Şanlıurfa,1,1711
41,2021-02-11,Ardahan,1,1202
42,2021-02-12,Bingöl,8,1774
43,2021-02-13,Zonguldak,11,1173
44,2021-02-14,Iğdır,5,1179
45,2021-02-15,Malatya,15,1351
46,2021-02-16,Bitlis,11,1070
47,2021-02-17,Antalya,3,1532
48,2021-02-18,Artvin,8,1154
49,2021-02-19,Isparta,15,1573
50,2021-02-20,Diyarbakır,13,1258
51,2021-02-21,Diyarbakır,5,1096
52,2021-02-22,Hakkari,6,1986
53,2021-02-23,Tekirdağ,15,1156
54,2021-02-24,Şanlıurfa,10,1433
55,2021-02-25,Tokat,7,1318
56,2021-02-26,Sivas,8,1581
57,2021-02-27,Denizli,6,1456
58,2021-02-28,Batman,6,1480
59,2021-03-01,Trabzon,4,1539
60,2021-03-02,Bursa,8,1305
61,2021-03-03,Tunceli,11,1979
62,2021-03-04,Niğde,8,1088
63,2021-03-05,Amasya,14,1229
64,2021-03-06,Bayburt,15,1657
65,2021-03-07,Ordu,2,1140
66,2021-03-08,Adıyaman,3,1687
67,2021-03-09,Kars,13,1720
68,2021-03-10,Nevşehir,5,1345
69,2021-03-11,Şanlıurfa,15,1826
70,2021-03-12,Batman,11,1405
71,2021-03-13,Bolu,9,1756
72,2021-03-14,Elazığ,15,1955
73,2021-03-15,Isparta,9,1374
74,2021-03-16,Karaman,13,1342
75,2021-03-17,Denizli,1,1892
76,2021-03-18,Van,7,1535
77,2021-03-19,Tunceli,5,1920
78,2021-03-20,Siirt,5,1504
79,2021-03-21,Karaman,15,1644
80,2021-03-22,Diyarbakır,14,1391
81,2021-03-23,Van,9,1743
82,2021-03-24,Yalova,5,1921
83,2021-03-25,Hatay,16,1554
84,2021-03-26,Niğde,10,1368
85,2021-03-27,Kastamonu,12,1242
86,2021-03-28,Nevşehir,1,1232
87,2021-03-29,Antalya,3,1314
88,2021-03-30,Çorum,10,1161
89,2021-03-31,İstanbul,7,1374
90,2021-04-01,Osmaniye,9,1237
91,2021-04-02,Edirne,11,1094
92,2021-04-03,Bartın,2,1591
93,2021-04-04,Amasya,13,1331
94,2021-04-05,Bayburt,16,1541
95,2021-04-06,Kırşehir,1,1141
96,2021-04-07,Zonguldak,10,1971
97,2021-04-08,Kütahya,5,1604
98,2021-04-09,Tunceli,14,1042
99,2021-04-10,Eskişehir,1,1272
100,2021-04-11,Çanakkale,8,1717
101,2021-04-12,Niğde,14,1763
102,2021-04-13,Hakkari,14,1570
103,2021-04-14,Şırnak,5,1380
104,2021-04-15,Bingöl,16,1772
105,2021-04-16,Erzurum,3,1797
106,2021-04-17,Kastamonu,3,1504
107,2021-04-18,Çorum,10,1908
108,2021-04-19,Burdur,17,1424
109,2021-04-20,Yalova,11,1774
110,2021-04-21,Yalova,8,1628
111,2021-04-22,Aksaray,3,1346
112,2021-04-23,Muş,8,1133
113,2021-04-24,Sivas,10,1743
114,2021-04-25,Burdur,6,1743
115,2021-04-26,Van,15,1817
116,2021-04-27,Çanakkale,15,1622
117,2021-04-28,İstanbul,9,1436
118,2021-04-29,Edirne,14,1800
119,2021-04-30,Karaman,6,1192
120,2021-05-01,Kastamonu,1,1656
121,2021-05-02,Diyarbakır,9,1806
122,2021-05-03,Adana,4,1908
123,2021-05-04,Bolu,17,1817
124,2021-05-05,Osmaniye,8,1763
125,2021-05-06,Şırnak,16,1086
126,2021-05-07,Kocaeli,3,1897
127,2021-05-08,Kırşehir,5,1720
128,2021-05-09,Bursa,17,1647
129,2021-05-10,Siirt,14,1311
130,2021-05-11,Denizli,6,1788
131,2021-05-12,Mardin,3,1959
132,2021-05-13,Erzurum,7,1231
133,2021-05-14,Yozgat,6,1290
134,2021-05-15,Hatay,7,1678
135,2021-05-16,Kırıkkale,9,1624
136,2021-05-17,Amasya,3,1292
137,2021-05-18,Çankırı,16,1385
138,2021-05-19,Sivas,2,1712
139,2021-05-20,Sivas,4,1642
140,2021-05-21,Kırklareli,12,1216
141,2021-05-22,Samsun,2,1690
142,2021-05-23,Samsun,1,1214
143,2021-05-24,Muş,5,1524
144,2021-05-25,Niğde,3,1782
145,2021-05-26,Kırşehir,12,1799
146,2021-05-27,Şırnak,1,1397
147,2021-05-28,Van,5,1856
148,2021-05-29,Hatay,8,1112
149,2021-05-30,Ordu,12,1297
150,2021-05-31,Kırklareli,14,1624
151,2021-06-01,Balıkesir,7,1253
152,2021-06-02,Sinop,1,1806
153,2021-06-03,Denizli,11,1523
154,2021-06-04,Batman,6,1118
155,2021-06-05,Kilis,15,1735
156,2021-06-06,Ardahan,11,1756
157,2021-06-07,Tekirdağ,7,1429
158,2021-06-08,Muş,6,1320
159,2021-06-09,Elazığ,5,1124
160,2021-06-10,Afyon,8,1508
161,2021-06-11,Adıyaman,13,1632
162,2021-06-12,Rize,12,1922
163,2021-06-13,Amasya,11,1418
164,2021-06-14,Kars,4,1498
165,2021-06-15,Zonguldak,11,1449
166,2021-06-16,Şırnak,10,1145
167,2021-06-17,Bilecik,16,1831
168,2021-06-18,Kırklareli,3,1596
169,2021-06-19,Şırnak,11,1563
170,2021-06-20,Bolu,12,1705
171,2021-06-21,Nevşehir,2,1262
172,2021-06-22,Nevşehir,1,1792
173,2021-06-23,Nevşehir,6,1399
174,2021-06-24,Adıyaman,17,1536
175,2021-06-25,Şırnak,16,1268
176,2021-06-26,Bingöl,5,1532
177,2021-06-27,Çorum,9,1772
178,2021-06-28,Denizli,12,1050
179,2021-06-29,Trabzon,9,1653
180,2021-06-30,Adana,1,1157
181,2021-07-01,Batman,6,1534
182,2021-07-02,Diyarbakır,6,1150
183,2021-07-03,Yozgat,2,1174
184,2021-07-04,Ankara,12,1046
185,2021-07-05,Yozgat,10,1846
186,2021-07-06,İzmir,17,1974
187,2021-07-07,İçel (Mersin),1,1587
188,2021-07-08,Aksaray,13,1455
189,2021-07-09,İçel (Mersin),4,1128
190,2021-07-10,Konya,13,1433
191,2021-07-11,Gümüşhane,8,1571
192,2021-07-12,Antalya,7,1011
193,2021-07-13,İçel (Mersin),17,1169
194,2021-07-14,Tokat,4,1737
195,2021-07-15,Aydın,3,1881
196,2021-07-16,Elazığ,17,1275
197,2021-07-17,Tokat,14,1709
198,2021-07-18,Trabzon,9,1373
199,2021-07-19,Ağrı,16,1457
200,2021-07-20,Kayseri,12,1742
201,2021-07-21,Bingöl,4,1590
202,2021-07-22,Eskişehir,16,1689
203,2021-07-23,Gümüşhane,15,1780
204,2021-07-24,Ankara,9,1317
205,2021-07-25,Kocaeli,3,1811
206,2021-07-26,Konya,7,1304
207,2021-07-27,Kars,8,1315
208,2021-07-28,Ağrı,11,1036
209,2021-07-29,Çanakkale,1,1589
210,2021-07-30,Bayburt,17,1700
211,2021-07-31,Ardahan,15,1019
212,2021-08-01,Artvin,10,1646
213,2021-08-02,Sakarya,7,1911
214,2021-08-03,Erzurum,7,1161
215,2021-08-04,Konya,16,1345
216,2021-08-05,Yalova,11,1185
217,2021-08-06,Siirt,8,1634
218,2021-08-07,Eskişehir,3,1247
219,2021-08-08,İzmir,10,1658
220,2021-08-09,Sivas,5,1644
221,2021-08-10,Erzincan,14,1319
222,2021-08-11,Adana,14,1849
223,2021-08-12,Çanakkale,6,1532
224,2021-08-13,Isparta,17,1368
225,2021-08-14,Zonguldak,2,1763
226,2021-08-15,Şırnak,2,1476
227,2021-08-16,Sinop,4,1612
228,2021-08-17,Edirne,5,1786
229,2021-08-18,Kütahya,3,1093
230,2021-08-19,Aksaray,6,1963
231,2021-08-20,Eskişehir,1,1622
232,2021-08-21,Balıkesir,4,1457
233,2021-08-22,Konya,2,1577
234,2021-08-23,Trabzon,8,1041
235,2021-08-24,İzmir,1,1653
236,2021-08-25,Kayseri,9,1556
237,2021-08-26,Balıkesir,11,1077
238,2021-08-27,Tokat,10,1720
239,2021-08-28,Rize,8,1836
240,2021-08-29,Ankara,9,1234
241,2021-08-30,Ankara,9,1989
242,2021-08-31,Kahramanmaraş,15,1761
243,2021-09-01,Bolu,14,1957
244,2021-09-02,Düzce,1,1194
245,2021-09-03,Samsun,11,1942
246,2021-09-04,Elazığ,17,1518
247,2021-09-05,Batman,6,1002
248,2021-09-06,İzmir,15,1686
249,2021-09-07,Edirne,9,1210
250,2021-09-08,Eskişehir,10,1212
251,2021-09-09,Osmaniye,10,1293
252,2021-09-10,Kars,7,1007
253,2021-09-11,Gümüşhane,5,1499
254,2021-09-12,Kırşehir,17,1258
255,2021-09-13,Osmaniye,2,1797
256,2021-09-14,Uşak,4,1616
257,2021-09-15,Bursa,7,1480
258,2021-09-16,Samsun,4,1308
259,2021-09-17,Uşak,17,1487
260,2021-09-18,Rize,8,1532
261,2021-09-19,Bingöl,16,1658
262,2021-09-20,Eskişehir,2,1963
263,2021-09-21,Kayseri,2,1955
264,2021-09-22,Mardin,2,1895
265,2021-09-23,Şırnak,11,1016
266,2021-09-24,Bolu,7,1381
267,2021-09-25,Adıyaman,15,1225
268,2021-09-26,Muğla,13,1252
269,2021-09-27,Artvin,6,1108
270,2021-09-28,Afyon,7,1657
271,2021-09-29,Şırnak,14,1188
272,2021-09-30,Yozgat,9,1796
273,2021-10-01,Kocaeli,17,1777
274,2021-10-02,Şırnak,2,1646
275,2021-10-03,Bitlis,13,1931
276,2021-10-04,Sinop,6,1691
277,2021-10-05,Kars,17,1292
278,2021-10-06,Kocaeli,9,1819
279,2021-10-07,Bilecik,12,1828
280,2021-10-08,İstanbul,16,1762
281,2021-10-09,Kocaeli,7,1699
282,2021-10-10,Nevşehir,4,1941
283,2021-10-11,Çankırı,1,1265
284,2021-10-12,Burdur,12,1933
285,2021-10-13,Sinop,13,1111
286,2021-10-14,Van,12,1662
287,2021-10-15,Tekirdağ,1,1517
288,2021-10-16,Amasya,15,1679
289,2021-10-17,İstanbul,3,1056
290,2021-10-18,Bolu,17,1112
291,2021-10-19,Bayburt,7,1192
292,2021-10-20,Kayseri,1,1347
293,2021-10-21,Tekirdağ,5,1194
294,2021-10-22,Karaman,11,1701
295,2021-10-23,İstanbul,11,1207
296,2021-10-24,Kilis,11,1808
297,2021-10-25,Diyarbakır,12,1855
298,2021-10-26,Tekirdağ,2,1368
299,2021-10-27,Kayseri,5,1818
300,2021-10-28,Balıkesir,4,1600
301,2021-10-29,Kayseri,3,1089
302,2021-10-30,Gaziantep,14,1908
303,2021-10-31,Aksaray,15,1084
304,2021-11-01,Hakkari,10,1799
305,2021-11-02,Mardin,14,1724
306,2021-11-03,Kütahya,10,1529
307,2021-11-04,Kırıkkale,6,1162
308,2021-11-05,Batman,3,1137
309,2021-11-06,Erzincan,1,1651
310,2021-11-07,Zonguldak,7,1157
311,2021-11-08,Giresun,9,1436
312,2021-11-09,Bilecik,2,1200
313,2021-11-10,Bayburt,7,1458
314,2021-11-11,Denizli,15,1073
315,2021-11-12,Şanlıurfa,15,1409
316,2021-11-13,Elazığ,11,1795
317,2021-11-14,Bingöl,16,1451
318,2021-11-15,Kars,10,1191
319,2021-11-16,İçel (Mersin),11,1950
320,2021-11-17,Zonguldak,1,1578
321,2021-11-18,Amasya,10,1305
322,2021-11-19,Şırnak,1,1526
323,2021-11-20,Çorum,10,1660
324,2021-11-21,Yalova,4,1593
325,2021-11-22,Şanlıurfa,16,1059
326,2021-11-23,Artvin,10,1723
327,2021-11-24,Yalova,14,1574
328,2021-11-25,Kütahya,7,1384
329,2021-11-26,Şırnak,6,1741
330,2021-11-27,İzmir,12,1855
331,2021-11-28,Adana,5,1660
332,2021-11-29,Sinop,10,1699
333,2021-11-30,Niğde,1,1652
334,2021-12-01,Adıyaman,15,1429
335,2021-12-02,Diyarbakır,12,1656
336,2021-12-03,Eskişehir,6,1469
337,2021-12-04,Bingöl,14,1105
338,2021-12-05,Çankırı,10,1791
339,2021-12-06,Ankara,4,1926
340,2021-12-07,Kastamonu,6,1563
341,2021-12-08,Kütahya,3,1786
342,2021-12-09,Siirt,5,1764
343,2021-12-10,Muğla,3,1553
344,2021-12-11,Artvin,3,1167
345,2021-12-12,Diyarbakır,8,1159
346,2021-12-13,Malatya,6,1404
347,2021-12-14,Hakkari,4,1121
348,2021-12-15,Bingöl,9,1184
349,2021-12-16,Niğde,9,1235
350,2021-12-17,Erzurum,12,1394
351,2021-12-18,Kayseri,9,1651
352,2021-12-19,Sakarya,7,1522
353,2021-12-20,Siirt,10,1251
354,2021-12-21,Uşak,9,1598
355,2021-12-22,Malatya,15,1621
356,2021-12-23,Rize,3,1385
357,2021-12-24,Trabzon,3,1152
358,2021-12-25,Kayseri,10,1702
359,2021-12-26,Artvin,4,1435
360,2021-12-27,Eskişehir,11,1507
361,2021-12-28,Malatya,10,1664
362,2021-12-29,Trabzon,3,1356
363,2021-12-30,Rize,2,1426
